<svg width="506" height="1" viewBox="0 0 506 1" fill="none" xmlns="http://www.w3.org/2000/svg">
<line x1="0.5" y1="0.75" x2="505.5" y2="0.75" stroke="url(#paint0_linear_887_2223)" stroke-width="0.5"/>
<defs>
<linearGradient id="paint0_linear_887_2223" x1="467.5" y1="0.99874" x2="253" y2="1.99874" gradientUnits="userSpaceOnUse">
<stop stop-color="#3C3C3C"/>
<stop offset="1" stop-color="#3C3C3C" stop-opacity="0"/>
</linearGradient>
</defs>
</svg>
